[gd_scene load_steps=5 format=2]

[ext_resource path="res://weather.gd" type="Script" id=1]
[ext_resource path="res://Anton.ttf" type="DynamicFontData" id=2]
[ext_resource path="res://Partly cloudy.png" type="Texture" id=3]

[sub_resource type="DynamicFont" id=1]
size = 48
outline_size = 2
outline_color = Color( 0, 0, 0, 1 )
font_data = ExtResource( 2 )

[node name="window" type="Control"]
anchor_right = 1.0
anchor_bottom = 1.0
script = ExtResource( 1 )
__meta__ = {
"_edit_use_anchors_": false
}

[node name="Label" type="Label" parent="."]
anchor_right = 1.0
anchor_bottom = 1.0
custom_fonts/font = SubResource( 1 )
text = "Loading..."
align = 1
valign = 1
autowrap = true
__meta__ = {
"_edit_use_anchors_": false
}

[node name="TextureRect" type="TextureRect" parent="."]
margin_left = 304.405
margin_top = 151.361
margin_right = 432.405
margin_bottom = 279.361
texture = ExtResource( 3 )
